{
    "f1-scores": [
        0.787878787878788,
        0.6428571428571429,
        0.6885245901639343,
        0.7083333333333334,
        0.7457627118644068
    ],
    "mean": 0.71467131321952108
}
